…
---

```r
flights %>% 
    mutate(flight_num = paste0(carrier, flight)) %>%
    group_by(flight_num, carrier) %>%
    summarise(N = n(),
              avg_arr_delay = mean(arr_delay),
              avg_distance = mean(distance))
```

```r
# A tibble: 5,725 x 5
# Groups:   flight_num [?]
   flight_num carrier     N avg_arr_delay avg_distance
   <chr>      <chr>   <int>         <dbl>        <dbl>
 1 9E2900     9E         59         0.983         765 
 2 9E2901     9E         55        15.8           187 
 3 9E2902     9E         55        NA             187 
 4 9E2903     9E         56        NA             358.
 5 9E2904     9E         57        NA             204.
 6 9E2905     9E          8        -8.38          187 
 7 9E2906     9E         41        NA             301 
 8 9E2907     9E         45        NA             301 
 9 9E2908     9E         58        NA             301 
10 9E2909     9E         29        NA             337.
# ... with 5,715 more rows
```
<!-- .element: class="fragment fade-in" data-fragment-index="1" -->

---

```r
flights %>% 
    mutate(flight_num = paste0(carrier, flight)) %>%
    group_by(flight_num, carrier) %>%
    summarise(N = n(),
              avg_arr_delay = mean(arr_delay, na.rm = T),
              avg_distance = mean(distance, na.rm = T))
```

```r
# A tibble: 5,725 x 5
# Groups:   flight_num [?]
   flight_num carrier     N avg_arr_delay avg_distance
   <chr>      <chr>   <int>         <dbl>        <dbl>
 1 9E2900     9E         59         0.983         765 
 2 9E2901     9E         55        15.8           187 
 3 9E2902     9E         55         1.87          187 
 4 9E2903     9E         56         7.34          358.
 5 9E2904     9E         57        12.2           204.
 6 9E2905     9E          8        -8.38          187 
 7 9E2906     9E         41        14.5           301 
 8 9E2907     9E         45         5.30          301 
 9 9E2908     9E         58        17.7           301 
10 9E2909     9E         29        -1             337.
# ... with 5,715 more rows
```
…
---

```r
library(lubridate)

flights %>%
    sample_n(10000) %>%
    mutate(week = as.factor(week(time_hour))) %>%
    select(week, arr_delay, dep_delay) %>%
    tidyr::gather("delay_type", "delay", 2:3)
```

```r
# A tibble: 20,000 x 3
   week  delay_type delay
   <fct> <chr>      <dbl>
 1 43    arr_delay     11
 2 19    arr_delay    -16
 3 30    arr_delay     89
 4 36    arr_delay    -21
 5 27    arr_delay    -18
 6 10    arr_delay     56
 7 38    arr_delay    -28
 8 44    arr_delay    -30
 9 44    arr_delay    -19
10 22    arr_delay     33
# ... with 19,990 more rows
```
…
